…
cl <- makeCluster(10)

hex_dead.list <- parLapply(cl, 1:length(all_days), fun2, these.sf, hex_ita_10km.sf)

stopCluster(cl)

hex_dead.df <- bind_rows(hex_dead.list)
colnames(hex_dead.df)[1] <- "hex_id"
save(hex_dead.df, file = "hex_dead.df.RData")

hex_dead.df %>%
  dplyr::group_by(day)

## # A tibble: 2,143,187 x 4
## # Groups:   day [366]
##    hex_id  Freq year  day  
##    <fct>  <int> <chr> <chr>
##  1 5          1 T_15  0101 
##  2 45         1 T_15  0101 
##  3 76         1 T_15  0101 
##  4 78         1 T_15  0101 
##  5 79         1 T_15  0101 
##  6 82         1 T_15  0101 
##  7 102        1 T_15  0101 
##  8 103        4 T_15  0101 
##  9 104        2 T_15  0101 
## 10 112        2 T_15  0101 
## # … with 2,143,177 more rows
…
